[12:13:49] [main/WARN]: Ambiguity between arguments [teleport, location] and [teleport, destination] with inputs: [0.1 -0.5 .9, 0 0 0]
[12:13:49] [main/WARN]: Ambiguity between arguments [teleport, location] and [teleport, targets] with inputs: [0.1 -0.5 .9, 0 0 0]
[12:13:49] [main/WARN]: Ambiguity between arguments [teleport, targets] and [teleport, destination] with inputs: [Player, 0123, dd12be42-52a9-4a91-a8a1-11c01849e498]
[12:13:49] [main/WARN]: Ambiguity between arguments [teleport, targets, location] and [teleport, targets, destination] with inputs: [0.1 -0.5 .9, 0 0 0]
[12:13:50] [Server thread/INFO]: Starting minecraft server version 1.15.2
[12:13:50] [Server console handler/ERROR]: Exception handling console input
java.io.IOException: Handle non valido
	at java.io.FileInputStream.readBytes(Native Method) ~[?:?]
	at java.io.FileInputStream.read(FileInputStream.java:279) ~[?:?]
	at java.io.BufferedInputStream.read1(BufferedInputStream.java:290) ~[?:?]
	at java.io.BufferedInputStream.read(BufferedInputStream.java:351) ~[?:?]
	at sun.nio.cs.StreamDecoder.readBytes(StreamDecoder.java:284) ~[?:?]
	at sun.nio.cs.StreamDecoder.implRead(StreamDecoder.java:326) ~[?:?]
	at sun.nio.cs.StreamDecoder.read(StreamDecoder.java:178) ~[?:?]
	at java.io.InputStreamReader.read(InputStreamReader.java:185) ~[?:?]
	at java.io.BufferedReader.fill(BufferedReader.java:161) ~[?:?]
	at java.io.BufferedReader.readLine(BufferedReader.java:326) ~[?:?]
	at java.io.BufferedReader.readLine(BufferedReader.java:392) ~[?:?]
	at wd$2.run(SourceFile:110) [server.jar:?]
[12:13:50] [Server thread/INFO]: Loading properties
[12:13:50] [Server thread/INFO]: Default game type: SURVIVAL
[12:13:50] [Server thread/INFO]: Generating keypair
[12:13:50] [Server thread/INFO]: Starting Minecraft server on *:25565
[12:13:50] [Server thread/INFO]: Using default channel type
[12:13:52] [Server thread/WARN]: **** SERVER IS RUNNING IN OFFLINE/INSECURE MODE!
[12:13:52] [Server thread/WARN]: The server will make no attempt to authenticate usernames. Beware.
[12:13:52] [Server thread/WARN]: While this makes the game possible to play without internet access, it also opens up the ability for hackers to connect with any username they choose.
[12:13:52] [Server thread/WARN]: To change this, set "online-mode" to "true" in the server.properties file.
[12:13:52] [Server thread/INFO]: Preparing level "world"
[12:13:52] [Server thread/INFO]: Reloading ResourceManager: Default
[12:13:58] [Server thread/INFO]: Loaded 6 recipes
[12:13:58] [Server thread/INFO]: Loaded 825 advancements
[12:13:58] [Server thread/INFO]: Preparing start region for dimension minecraft:overworld
[12:14:00] [Server thread/INFO]: Preparing spawn area: 0%
[12:14:00] [Server thread/INFO]: Preparing spawn area: 0%
[12:14:00] [Server thread/INFO]: Preparing spawn area: 0%
[12:14:00] [Server thread/INFO]: Preparing spawn area: 0%
[12:14:01] [Server thread/INFO]: Preparing spawn area: 83%
[12:14:01] [Server thread/INFO]: Time elapsed: 3018 ms
[12:14:01] [Server thread/INFO]: Done (9.944s)! For help, type "help"
[12:14:30] [Server thread/INFO]: Frisby[/127.0.0.1:61276] logged in with entity id 164 at (-270.72817782447726, 77.0, 0.941539045249479)
[12:14:30] [Server thread/INFO]: Frisby joined the game
[12:17:21] [Server thread/INFO]: Frisby lost connection: Disconnected
[12:17:21] [Server thread/INFO]: Frisby left the game
[12:17:26] [Server thread/INFO]: Stopping server
[12:17:26] [Server thread/INFO]: Saving players
[12:17:26] [Server thread/INFO]: Saving worlds
[12:17:26] [Server thread/INFO]: Saving chunks for level 'world'/minecraft:overworld
[12:17:26] [Server thread/INFO]: ThreadedAnvilChunkStorage (world): All chunks are saved
[12:17:26] [Server thread/INFO]: Saving chunks for level 'world'/minecraft:the_nether
[12:17:26] [Server thread/INFO]: ThreadedAnvilChunkStorage (DIM-1): All chunks are saved
[12:17:26] [Server thread/INFO]: Saving chunks for level 'world'/minecraft:the_end
[12:17:26] [Server thread/INFO]: ThreadedAnvilChunkStorage (DIM1): All chunks are saved
[12:17:26] [Server thread/INFO]: ThreadedAnvilChunkStorage (world): All chunks are saved
[12:17:27] [Server thread/INFO]: ThreadedAnvilChunkStorage (DIM-1): All chunks are saved
[12:17:27] [Server thread/INFO]: ThreadedAnvilChunkStorage (DIM1): All chunks are saved
